…
which(is.na(movies)) #checking for na values

## integer(0)

length(unique(movies$title)) #checking if there are non-unique rows 

## [1] 2907

movies[duplicated(movies$title),] #using the duplicate() fucntion to return a list of duplicate movie titles 

## # A tibble: 54 × 11
##    title   genre  director   year duration  gross budget cast_facebook_l…  votes
##    <chr>   <chr>  <chr>     <dbl>    <dbl>  <dbl>  <dbl>            <dbl>  <dbl>
##  1 Spider… Action Sam Raimi  2007      156 3.37e8 2.58e8            46055 383071
##  2 Alice … Adven… Tim Burt…  2010      108 3.34e8 2   e8            79957 306336
##  3 Oz the… Adven… Sam Raimi  2013      130 2.35e8 2.15e8            73441 175413
##  4 Cinder… Drama  Kenneth …  2015      105 2.01e8 9.5 e7             4671 103749
##  5 Twilig… Drama  Catherin…  2008      122 1.91e8 3.7 e7            44060 348007
##  6 Teenag… Action Jonathan…  2014      101 1.91e8 1.25e8             2690 167089
##  7 Planet… Action Tim Burt…  2001      119 1.80e8 1   e8             2776 177729
##  8 Home    Adven… Tim John…  2015       94 1.77e8 1.35e8            17883  70133
##  9 Home    Adven… Tim John…  2015       94 1.77e8 1.35e8            17883  70136
## 10 TRON: … Action Joseph K…  2010      125 1.72e8 1.7 e8            25549 264186
## # … with 44 more rows, and 2 more variables: reviews <dbl>, rating <dbl>
…
We create a table where you summarise monthly returns for each of the stocks and SPY; min, max, median, mean, SD.

# YOUR CODE GOES HERE
summary_returns <- myStocks_returns_monthly %>% #Creating a new table for summarizing data 
  group_by(symbol) %>% #grouping data by stock based 
  summarize(average_returns = mean(monthly_returns), median_returns=median(monthly_returns),sd_returns=StdDev(monthly_returns), min_returns = min(monthly_returns), max_returns=max(monthly_returns))%>% 
  arrange(desc(sd_returns)) #arranging the data in desceding order of standard deviation
summary_returns

## # A tibble: 31 × 6
##    symbol average_returns median_returns sd_returns[,1] min_returns max_returns
##    <chr>            <dbl>          <dbl>          <dbl>       <dbl>       <dbl>
##  1 AAPL           0.0269          0.0352         0.115       -0.577       0.454
##  2 CRM            0.0262          0.0205         0.110       -0.360       0.403
##  3 DOW            0.0156          0.0325         0.109       -0.276       0.255
##  4 CSCO           0.00606         0.0125         0.0962      -0.367       0.389
##  5 INTC           0.00755         0.0127         0.0955      -0.445       0.338
##  6 GS             0.0111          0.0163         0.0926      -0.275       0.312
##  7 BA             0.0126          0.0165         0.0925      -0.458       0.459
##  8 AXP            0.0101          0.0109         0.0921      -0.279       0.875
##  9 CAT            0.0144          0.0141         0.0898      -0.353       0.350
## 10 JPM            0.0110          0.0161         0.0868      -0.281       0.255
## # … with 21 more rows
…
